{"hash":"6ca79e640bb9e61e3bf7cbc66718cc0e75c26dc2","data":{"tag":{"title":"post","belongsTo":{"totalCount":4,"pageInfo":{"totalPages":2,"currentPage":1},"edges":[{"node":{"title":"Future Post","timeToRead":1,"date":"December 25, 2020","path":"/future-post","summary":"Lorem ipsum dolor sit amet consectetur adipisicing elit. Hic rerum earum quos explicabo suscipit maxime iste qui nihil. Reiciendis asperiores minus necessitatibus","tags":[{"title":"post"},{"title":"future"}]}},{"node":{"title":"Test Post","timeToRead":1,"date":"August 12, 2020","path":"/test-post","summary":"Test...","tags":[{"title":"post"},{"title":"test"}]}},{"node":{"title":"New Post","timeToRead":1,"date":"December 25, 2019","path":"/new-post","summary":"Lorem ipsum dolor sit amet consectetur adipisicing elit. Hic rerum earum quos explicabo suscipit maxime iste qui nihil. Reiciendis asperiores minus necessitatibus","tags":[{"title":"post"},{"title":"new"}]}}]}}},"context":{}}