{"hash":"6ca79e640bb9e61e3bf7cbc66718cc0e75c26dc2","data":{"posts":{"totalCount":6,"pageInfo":{"totalPages":2,"currentPage":2},"edges":[{"node":{"id":"595d70f0e11012281a488130fb1c331d","title":"Introduction to Gridsome","date":"April 8, 2019","summary":"Gridsome is a Vue.js-powered, modern site generator for building the fastest possible websites for any Headless CMS, APIs or Markdown-files. Gridsome makes it easy and fun for developers to create fast, beautiful websites without needing to become a performance expert.","timeToRead":1,"path":"/introduction-to-gridsome"}},{"node":{"id":"f626b112c8575cb23aaf5ef200c2fd32","title":"How to Get Better At Coding","date":"April 5, 2019","summary":"Lorem ipsum dolor sit amet consectetur adipisicing elit. Hic rerum earum quos explicabo suscipit maxime iste qui nihil. Reiciendis asperiores minus necessitatibus","timeToRead":2,"path":"/how-to-get-better-at-coding"}},{"node":{"id":"3210f18d913291cb3c4e9a57603125ea","title":"Old Post","date":"December 25, 2015","summary":"Lorem ipsum dolor sit amet consectetur adipisicing elit. Hic rerum earum quos explicabo suscipit maxime iste qui nihil. Reiciendis asperiores minus necessitatibus","timeToRead":1,"path":"/old-post"}}]}},"context":{}}