{"hash":"6ca79e640bb9e61e3bf7cbc66718cc0e75c26dc2","data":{"tag":{"title":"post","belongsTo":{"totalCount":4,"pageInfo":{"totalPages":2,"currentPage":2},"edges":[{"node":{"title":"Old Post","timeToRead":1,"date":"December 25, 2015","path":"/old-post","summary":"Lorem ipsum dolor sit amet consectetur adipisicing elit. Hic rerum earum quos explicabo suscipit maxime iste qui nihil. Reiciendis asperiores minus necessitatibus","tags":[{"title":"post"},{"title":"old"}]}}]}}},"context":{}}