{"hash":"c8fa5bdcbad41645b3665e8e0cd7ae650ed0af8c","data":{"posts":{"totalCount":5,"pageInfo":{"totalPages":2,"currentPage":1},"edges":[{"node":{"id":"2b999d19990ac57ea67a45e86989bedc","title":"Future Post","date":"December 25, 2020","summary":"Lorem ipsum dolor sit amet consectetur adipisicing elit. Hic rerum earum quos explicabo suscipit maxime iste qui nihil. Reiciendis asperiores minus necessitatibus","timeToRead":1,"path":"/future-post"}},{"node":{"id":"4b90de181d126c0aa934e1068457ece5","title":"New Post","date":"December 25, 2019","summary":"Lorem ipsum dolor sit amet consectetur adipisicing elit. Hic rerum earum quos explicabo suscipit maxime iste qui nihil. Reiciendis asperiores minus necessitatibus","timeToRead":1,"path":"/new-post"}},{"node":{"id":"595d70f0e11012281a488130fb1c331d","title":"Introduction to Gridsome","date":"April 8, 2019","summary":"Gridsome is a Vue.js-powered, modern site generator for building the fastest possible websites for any Headless CMS, APIs or Markdown-files. Gridsome makes it easy and fun for developers to create fast, beautiful websites without needing to become a performance expert.","timeToRead":1,"path":"/introduction-to-gridsome"}}]}},"context":{}}